%YAML 1.1
%TAG !u! tag:unity3d.com,2011:
--- !u!162 &1
EditorUserSettings:
  m_ObjectHideFlags: 0
  serializedVersion: 4
  m_ConfigSettings:
    GraphicsSettingsInspector_UserSettings:
      value: 18134705175a055722080a3115371d4a0d55006876786860616b0471b8b07a68ffab74f9ee2a3a30300cea1a11320d0beb1a0c25f7060f494b4cdf1b18f3045e38cb5ad8
      flags: 0
    RecentlyUsedSceneGuid-0:
      value: 5504555256015c5a590c0f7344255a44444e4b727a787667297d1e32e3e6353e
      flags: 0
    RecentlyUsedSceneGuid-1:
      value: 02535652570d5d0f5e56087a11775b444315492b292c24352f2b1860e4b76d39
      flags: 0
    RecentlyUsedSceneGuid-2:
      value: 5303560754500b5e5c0c0972407108444f161e7f2a2c2464782b1f6ab6e5303a
      flags: 0
    RecentlyUsedSceneGuid-3:
      value: 075202565d035a02085a5871427a0844104e4f7b7a7e27337d7b4a60b2b2356f
      flags: 0
    RecentlyUsedSceneGuid-4:
      value: 5554015151535f5e0c5b597442250d44124e487f7b2977332b7e1836e1b6623c
      flags: 0
    RecentlyUsedSceneGuid-5:
      value: 060603515c50510a5a0d0d774776094440154b7e747e7367747d4f6ae1b3376b
      flags: 0
    RecentlyUsedSceneGuid-6:
      value: 070152025701595f5f58597746700a44454f4a2f7c7925667c2c4b6be1b46268
      flags: 0
    RecentlyUsedSceneGuid-7:
      value: 5105520757560f025f0c557445755c444216402b7f2c22312b784c30b2b2636e
      flags: 0
    RecentlyUsedSceneGuid-8:
      value: 570306570657580f5d560f2441750f44454e417a7c7c7f647f7e4e32b1b83239
      flags: 0
    RecentlyUsedSceneGuid-9:
      value: 53020d0404060b0c555e5d2043205d44134f482c742b773378781e66b0e6326e
      flags: 0
    vcSharedLogLevel:
      value: 0d5e400f0650
      flags: 0
  m_VCAutomaticAdd: 1
  m_VCDebugCom: 0
  m_VCDebugCmd: 0
  m_VCDebugOut: 0
  m_SemanticMergeMode: 2
  m_DesiredImportWorkerCount: 3
  m_StandbyImportWorkerCount: 2
  m_IdleImportWorkerShutdownDelay: 60000
  m_VCShowFailedCheckout: 1
  m_VCOverwriteFailedCheckoutAssets: 1
  m_VCProjectOverlayIcons: 1
  m_VCHierarchyOverlayIcons: 1
  m_VCOtherOverlayIcons: 1
  m_VCAllowAsyncUpdate: 0
  m_VCScanLocalPackagesOnConnect: 1
  m_ArtifactGarbageCollection: 1
  m_CompressAssetsOnImport: 1
